SIM/tb_top.vcd
$date
	Wed Dec  6 18:09:06 2023
$end
$version
	Icarus Verilog
$end
$timescale
	10ps
$end
$scope module tb_top $end
$var wire 8 ! value_o [7:0] $end
$var wire 1 " is_positive $end
$var wire 3 # easter_egg [2:0] $end
$var reg 1 $ Clk $end
$var reg 1 % DataOrReg $end
$var reg 5 & address [4:0] $end
$var reg 8 ' instr_i [7:0] $end
$var reg 1 ( reset $end
$var reg 2 ) vout_addr [1:0] $end
$var integer 32 * counter [31:0] $end
$var integer 32 + err [31:0] $end
$var integer 32 , flush [31:0] $end
$var integer 32 - idx [31:0] $end
$var integer 32 . j [31:0] $end
$var integer 32 / k [31:0] $end
$var integer 32 0 outfile [31:0] $end
$var integer 32 1 stall [31:0] $end
$scope module u_CPU $end
$var wire 1 % DataOrReg $end
$var wire 1 2 PC_Branch_Select $end
$var wire 5 3 address [4:0] $end
$var wire 1 $ clk_i $end
$var wire 8 4 instr_i [7:0] $end
$var wire 1 ( reset $end
$var wire 1 5 rst $end
$var wire 2 6 vout_addr [1:0] $end
$var wire 4 7 vector_signed_bits [3:0] $end
$var wire 1 8 toDataMemory $end
$var wire 12 9 swIm [11:0] $end
$var wire 32 : shiftLeft_data_o [31:0] $end
$var wire 32 ; reg_o [31:0] $end
$var wire 32 < pcSelect_data_o [31:0] $end
$var wire 12 = pcIm [11:0] $end
$var wire 32 > memToReg_data_o [31:0] $end
$var wire 4 ? is_positive_line [3:0] $end
$var wire 1 " is_positive $end
$var wire 1 @ isBranch $end
$var wire 32 A inst_addr [31:0] $end
$var wire 32 B inst [31:0] $end
$var wire 32 C data_mem_o [31:0] $end
$var wire 32 D aluToDM_data_o [31:0] $end
$var wire 32 E addPC [31:0] $end
$var wire 32 F VALU_v_o [31:0] $end
$var wire 3 G VALU_Control_VALUCtrl_o [2:0] $end
$var wire 32 H Sign_Extend_data_o [31:0] $end
$var wire 32 I Registers_RTdata_o [31:0] $end
$var wire 32 J Registers_RSdata_o [31:0] $end
$var wire 1 K RegEqual $end
$var wire 32 L PCImmExtend_data_o [31:0] $end
$var wire 1 M MUX_Control_RegWrite_o $end
$var wire 5 N MUX_Control_RegDst_o [4:0] $end
$var wire 1 O MUX_Control_MemWrite_o $end
$var wire 1 P MUX_Control_MemToReg_o $end
$var wire 1 Q MUX_Control_MemRead_o $end
$var wire 1 R MUX_Control_ALUSrc_o $end
$var wire 2 S MUX_Control_ALUOp_o [1:0] $end
$var wire 32 T MUX_ALUSrc_data_o [31:0] $end
$var wire 1 U MEM_WB_RegWrite_o $end
$var wire 5 V MEM_WB_RDaddr_o [4:0] $end
$var wire 1 W MEM_WB_MemToReg_o $end
$var wire 32 X MEM_WB_DataMemReadData_o [31:0] $end
$var wire 32 Y MEM_WB_ALUResult_o [31:0] $end
$var wire 32 Z IF_ID_pc_o [31:0] $end
$var wire 12 [ IF_ID_pcIm_o [11:0] $end
$var wire 32 \ IF_ID_inst_o [31:0] $end
$var wire 32 ] ID_EX_pc_o [31:0] $end
$var wire 32 ^ ID_EX_inst_o [31:0] $end
$var wire 32 _ ID_EX_SignExtended_o [31:0] $end
$var wire 1 ` ID_EX_RegWrite_o $end
$var wire 5 a ID_EX_RegDst_o [4:0] $end
$var wire 5 b ID_EX_RTaddr_o [4:0] $end
$var wire 5 c ID_EX_RSaddr_o [4:0] $end
$var wire 32 d ID_EX_RDData1_o [31:0] $end
$var wire 32 e ID_EX_RDData0_o [31:0] $end
$var wire 1 f ID_EX_MemWrite_o $end
$var wire 1 g ID_EX_MemToReg_o $end
$var wire 1 h ID_EX_MemRead_o $end
$var wire 1 i ID_EX_ALUSrc_o $end
$var wire 2 j ID_EX_ALUOp_o [1:0] $end
$var wire 1 k HazradDetect_Hazard_o $end
$var wire 2 l ForwardingUnit_ForwardB_o [1:0] $end
$var wire 2 m ForwardingUnit_ForwardA_o [1:0] $end
$var wire 32 n ForwardToData2_data_o [31:0] $end
$var wire 32 o ForwardToData1_data_o [31:0] $end
$var wire 32 p EX_MEM_instr_o [31:0] $end
$var wire 32 q EX_MEM_VALUResult_o [31:0] $end
$var wire 1 r EX_MEM_RegWrite_o $end
$var wire 5 s EX_MEM_RDaddr_o [4:0] $end
$var wire 32 t EX_MEM_RDData_o [31:0] $end
$var wire 1 u EX_MEM_MemWrite_o $end
$var wire 1 v EX_MEM_MemToReg_o $end
$var wire 1 w EX_MEM_MemRead_o $end
$var wire 32 x EX_MEM_ALUResult_o [31:0] $end
$var wire 32 y Data_Memory_data_o [31:0] $end
$var wire 1 z Control_immSelect_o $end
$var wire 1 { Control_RegWrite_o $end
$var wire 1 | Control_MemWr_o $end
$var wire 1 } Control_MemToReg_o $end
$var wire 1 ~ Control_MemRd_o $end
$var wire 1 !" Control_ALUSrc_o $end
$var wire 2 "" Control_ALUOp_o [1:0] $end
$var wire 32 #" AddSum_data_o [31:0] $end
$var wire 10 $" ALUfunct_in [9:0] $end
$var wire 32 %" ALU_data_o [31:0] $end
$var wire 1 &" ALU_Zero_o $end
$var wire 3 '" ALU_Control_ALUCtrl_o [2:0] $end
$var reg 3 (" easter_counter [2:0] $end
$var reg 3 )" easter_counter_next [2:0] $end
$var reg 3 *" easter_egg [2:0] $end
$var reg 1 +" easter_flag $end
$var reg 1 ," easter_flag_next $end
$var reg 8 -" egg1 [7:0] $end
$var reg 8 ." egg2 [7:0] $end
$var reg 8 /" egg3 [7:0] $end
$var reg 1 0" flag $end
$var reg 1 1" start_i $end
$var reg 8 2" value_o [7:0] $end
$scope module ALU $end
$var wire 32 3" data2_i [31:0] $end
$var wire 32 4" data1_i [31:0] $end
$var wire 3 5" ALUCtrl_i [2:0] $end
$var reg 1 &" Zero_o $end
$var reg 32 6" data_o [31:0] $end
$upscope $end
$scope module ALU_Control $end
$var wire 10 7" funct_i [9:0] $end
$var wire 2 8" ALUOp_i [1:0] $end
$var reg 3 9" ALUCtrl_o [2:0] $end
$upscope $end
$scope module Data_Memory $end
$var wire 1 $ clk_i $end
$var wire 5 :" op_addr [4:0] $end
$var wire 1 5 reset $end
$var wire 32 ;" op [31:0] $end
$var wire 32 <" data_o [31:0] $end
$var wire 32 =" data_mem_o [31:0] $end
$var wire 32 >" data_i [31:0] $end
$var wire 32 ?" addr_i [31:0] $end
$var wire 1 u MemWrite_i $end
$var wire 1 w MemRead_i $end
$var integer 32 @" i [31:0] $end
$upscope $end
$scope module EX_MEM $end
$var wire 32 A" ALUResult_i [31:0] $end
$var wire 1 $ clk_i $end
$var wire 1 1" start_i $end
$var wire 1 &" zero_i $end
$var wire 32 B" pc_i [31:0] $end
$var wire 32 C" instr_i [31:0] $end
$var wire 32 D" VALUResult_i [31:0] $end
$var wire 1 ` RegWrite_i $end
$var wire 5 E" RDaddr_i [4:0] $end
$var wire 32 F" RDData_i [31:0] $end
$var wire 1 f MemWrite_i $end
$var wire 1 g MemToReg_i $end
$var wire 1 h MemRead_i $end
$var reg 32 G" ALUResult_o [31:0] $end
$var reg 1 w MemRead_o $end
$var reg 1 v MemToReg_o $end
$var reg 1 u MemWrite_o $end
$var reg 32 H" RDData_o [31:0] $end
$var reg 5 I" RDaddr_o [4:0] $end
$var reg 1 r RegWrite_o $end
$var reg 32 J" VALUResult_o [31:0] $end
$var reg 32 K" instr_o [31:0] $end
$var reg 32 L" pc_o [31:0] $end
$var reg 1 M" zero_o $end
$upscope $end
$scope module ForwardToData1 $end
$var wire 32 N" EX_MEM_i [31:0] $end
$var wire 2 O" select_i [1:0] $end
$var wire 32 P" data_i [31:0] $end
$var wire 32 Q" MEM_WB_i [31:0] $end
$var reg 32 R" data_o [31:0] $end
$upscope $end
$scope module ForwardToData2 $end
$var wire 32 S" EX_MEM_i [31:0] $end
$var wire 2 T" select_i [1:0] $end
$var wire 32 U" data_i [31:0] $end
$var wire 32 V" MEM_WB_i [31:0] $end
$var reg 32 W" data_o [31:0] $end
$upscope $end
$scope module ForwardingUnit $end
$var wire 5 X" EX_MEM_RD_i [4:0] $end
$var wire 1 r EX_MEM_RegWrite_i $end
$var wire 1 U MEM_WB_RegWrite_i $end
$var wire 5 Y" MEM_WB_RD_i [4:0] $end
$var wire 5 Z" ID_EX_RT_i [4:0] $end
$var wire 5 [" ID_EX_RS_i [4:0] $end
$var reg 2 \" ForwardA_o [1:0] $end
$var reg 2 ]" ForwardB_o [1:0] $end
$upscope $end
$scope module HazradDetect $end
$var wire 5 ^" ID_EXrd_i [4:0] $end
$var wire 5 _" IF_IDrs1_i [4:0] $end
$var wire 5 `" IF_IDrs2_i [4:0] $end
$var wire 1 h ID_EX_MemRead_i $end
$var wire 1 k Hazard_o $end
$upscope $end
$scope module ID_EX $end
$var wire 1 2 PC_branch_select_i $end
$var wire 5 a" RSaddr_i [4:0] $end
$var wire 5 b" RTaddr_i [4:0] $end
$var wire 1 $ clk_i $end
$var wire 1 1" start_i $end
$var wire 32 c" pc_i [31:0] $end
$var wire 32 d" pcEx_i [31:0] $end
$var wire 32 e" inst_i [31:0] $end
$var wire 32 f" SignExtended_i [31:0] $end
$var wire 1 M RegWrite_i $end
$var wire 5 g" RegDst_i [4:0] $end
$var wire 32 h" RDData1_i [31:0] $end
$var wire 32 i" RDData0_i [31:0] $end
$var wire 1 O MemWrite_i $end
$var wire 1 P MemToReg_i $end
$var wire 1 Q MemRead_i $end
$var wire 1 R ALUSrc_i $end
$var wire 2 j" ALUOp_i [1:0] $end
$var reg 2 k" ALUOp_o [1:0] $end
$var reg 1 i ALUSrc_o $end
$var reg 1 h MemRead_o $end
$var reg 1 g MemToReg_o $end
$var reg 1 f MemWrite_o $end
$var reg 1 l" PC_branch_select_o $end
$var reg 32 m" RDData0_o [31:0] $end
$var reg 32 n" RDData1_o [31:0] $end
$var reg 5 o" RSaddr_o [4:0] $end
$var reg 5 p" RTaddr_o [4:0] $end
$var reg 5 q" RegDst_o [4:0] $end
$var reg 1 ` RegWrite_o $end
$var reg 32 r" SignExtended_o [31:0] $end
$var reg 32 s" inst_o [31:0] $end
$var reg 32 t" pcEx_o [31:0] $end
$var reg 32 u" pc_o [31:0] $end
$upscope $end
$scope module MEM_WB $end
$var wire 32 v" DataMemReadData_i [31:0] $end
$var wire 1 v MemToReg_i $end
$var wire 32 w" RDData_i [31:0] $end
$var wire 5 x" RDaddr_i [4:0] $end
$var wire 1 r RegWrite_i $end
$var wire 1 $ clk_i $end
$var wire 1 1" start_i $end
$var wire 32 y" ALUResult_i [31:0] $end
$var reg 32 z" ALUResult_o [31:0] $end
$var reg 32 {" DataMemReadData_o [31:0] $end
$var reg 1 W MemToReg_o $end
$var reg 32 |" RDData_o [31:0] $end
$var reg 5 }" RDaddr_o [4:0] $end
$var reg 1 U RegWrite_o $end
$upscope $end
$scope module MUX_ALUSrc $end
$var wire 32 ~" data1_i [31:0] $end
$var wire 32 !# data2_i [31:0] $end
$var wire 1 i select_i $end
$var wire 32 "# data_o [31:0] $end
$upscope $end
$scope module MUX_Control $end
$var wire 1 k Hazard_i $end
$var wire 5 ## RegDst_i [4:0] $end
$var wire 1 { RegWrite_i $end
$var wire 1 | MemWrite_i $end
$var wire 1 } MemToReg_i $end
$var wire 1 ~ MemRead_i $end
$var wire 1 !" ALUSrc_i $end
$var wire 2 $# ALUOp_i [1:0] $end
$var reg 2 %# ALUOp_o [1:0] $end
$var reg 1 R ALUSrc_o $end
$var reg 1 Q MemRead_o $end
$var reg 1 P MemToReg_o $end
$var reg 1 O MemWrite_o $end
$var reg 5 &# RegDst_o [4:0] $end
$var reg 1 M RegWrite_o $end
$upscope $end
$scope module Sign_Extend $end
$var wire 12 '# data0_i [11:0] $end
$var wire 12 (# data1_i [11:0] $end
$var wire 1 z select_i $end
$var wire 32 )# data_o [31:0] $end
$upscope $end
$scope module VALU $end
$var wire 32 *# v1_i [31:0] $end
$var wire 32 +# v2_i [31:0] $end
$var wire 16 ,# a8 [15:0] $end
$var wire 16 -# a7 [15:0] $end
$var wire 16 .# a6 [15:0] $end
$var wire 16 /# a5 [15:0] $end
$var wire 16 0# a4 [15:0] $end
$var wire 16 1# a3 [15:0] $end
$var wire 16 2# a2 [15:0] $end
$var wire 16 3# a1 [15:0] $end
$var wire 3 4# VALUCtrl_i [2:0] $end
$var reg 8 5# b1 [7:0] $end
$var reg 8 6# b2 [7:0] $end
$var reg 8 7# b3 [7:0] $end
$var reg 8 8# b4 [7:0] $end
$var reg 8 9# b5 [7:0] $end
$var reg 8 :# b6 [7:0] $end
$var reg 8 ;# b7 [7:0] $end
$var reg 8 <# b8 [7:0] $end
$var reg 8 =# e1 [7:0] $end
$var reg 8 ># e2 [7:0] $end
$var reg 8 ?# e3 [7:0] $end
$var reg 8 @# e4 [7:0] $end
$var reg 4 A# over [3:0] $end
$var reg 16 B# s1 [15:0] $end
$var reg 16 C# s2 [15:0] $end
$var reg 16 D# s3 [15:0] $end
$var reg 16 E# s4 [15:0] $end
$var reg 32 F# v_o [31:0] $end
$upscope $end
$scope module VALU_Control $end
$var wire 10 G# vfunct_i [9:0] $end
$var reg 3 H# VALUCtrl_o [2:0] $end
$upscope $end
$scope module aluToDM $end
$var wire 32 I# data1_i [31:0] $end
$var wire 32 J# data2_i [31:0] $end
$var wire 1 8 select_i $end
$var wire 32 K# data_o [31:0] $end
$upscope $end
$scope module memToReg $end
$var wire 32 L# data1_i [31:0] $end
$var wire 32 M# data2_i [31:0] $end
$var wire 1 W select_i $end
$var wire 32 N# data_o [31:0] $end
$upscope $end
$scope module u_AddSum $end
$var wire 3 O# ALUCtrl_i [2:0] $end
$var wire 32 P# data2_i [31:0] $end
$var wire 32 Q# data1_i [31:0] $end
$var reg 1 R# Zero_o $end
$var reg 32 S# data_o [31:0] $end
$upscope $end
$scope module u_Add_PC $end
$var wire 32 T# data2_in [31:0] $end
$var wire 32 U# data_o [31:0] $end
$var wire 32 V# data1_in [31:0] $end
$upscope $end
$scope module u_Control $end
$var wire 7 W# Op_i [6:0] $end
$var reg 2 X# ALUOp_o [1:0] $end
$var reg 1 !" ALUSrc_o $end
$var reg 1 ~ MemRd_o $end
$var reg 1 } MemToReg_o $end
$var reg 1 | MemWr_o $end
$var reg 1 { RegWrite_o $end
$var reg 1 z immSelect_o $end
$upscope $end
$scope module u_IF_ID $end
$var wire 1 $ clk_i $end
$var wire 1 2 flush_i $end
$var wire 1 k hazard_i $end
$var wire 12 Y# pcIm_i [11:0] $end
$var wire 1 1" start_i $end
$var wire 32 Z# pc_i [31:0] $end
$var wire 32 [# inst_i [31:0] $end
$var reg 32 \# inst_o [31:0] $end
$var reg 12 ]# pcIm_o [11:0] $end
$var reg 32 ^# pc_o [31:0] $end
$upscope $end
$scope module u_Instruction_Memory $end
$var wire 1 $ clk $end
$var wire 8 _# instr_i [7:0] $end
$var wire 32 `# instr_o [31:0] $end
$var wire 1 5 reset $end
$var wire 32 a# addr_i [31:0] $end
$var reg 6 b# address_read [5:0] $end
$var reg 2 c# counter [1:0] $end
$var reg 2 d# counter_next [1:0] $end
$var reg 1 e# flag $end
$var reg 1 f# flag_next $end
$var reg 8 g# instr_read [7:0] $end
$var reg 6 h# instr_wr_address [5:0] $end
$var reg 6 i# instr_wr_address_next [5:0] $end
$var reg 2 j# quad [1:0] $end
$var reg 2 k# quad_d1 [1:0] $end
$var integer 32 l# i [31:0] $end
$upscope $end
$scope module u_PC $end
$var wire 1 $ clk_i $end
$var wire 1 k hazardpc_i $end
$var wire 1 1" start_i $end
$var wire 32 m# pc_i [31:0] $end
$var reg 1 n# flag $end
$var reg 1 o# flag_next $end
$var reg 32 p# pc_o [31:0] $end
$upscope $end
$scope module u_PCImmExtend $end
$var wire 12 q# data0_i [11:0] $end
$var wire 12 r# data1_i [11:0] $end
$var wire 32 s# data_o [31:0] $end
$var wire 1 t# select_i $end
$upscope $end
$scope module u_Registers $end
$var wire 5 u# RDaddr_i [4:0] $end
$var wire 32 v# RDdata_i [31:0] $end
$var wire 5 w# RSaddr_i [4:0] $end
$var wire 32 x# RSdata_o [31:0] $end
$var wire 5 y# RTaddr_i [4:0] $end
$var wire 32 z# RTdata_o [31:0] $end
$var wire 1 U RegWrite_i $end
$var wire 1 $ clk_i $end
$var wire 4 {# is_pos_i [3:0] $end
$var wire 5 |# op_address [4:0] $end
$var wire 4 }# pos_o [3:0] $end
$var wire 32 ~# reg_o [31:0] $end
$var wire 1 5 reset $end
$var integer 32 !$ i [31:0] $end
$upscope $end
$scope module u_pcSelect $end
$var wire 32 "$ data1_i [31:0] $end
$var wire 32 #$ data2_i [31:0] $end
$var wire 1 @ select_i $end
$var wire 32 $$ data_o [31:0] $end
$upscope $end
$scope module u_shiftLeft $end
$var wire 32 %$ data_i [31:0] $end
$var wire 32 &$ data_o [31:0] $end
$upscope $end
$upscope $end
$upscope $end
$enddefinitions $end
#0
$dumpvars
bx0 &$
bx %$
bx $$
bx #$
b100 "$
b100000 !$
b0 ~#
b0 }#
b1000 |#
b0 {#
bx z#
bx y#
bx x#
bx w#
b0 v#
b0 u#
0t#
bx s#
b0 r#
bx q#
b0 p#
0o#
0n#
bx m#
b111111 l#
bx k#
b0 j#
b0 i#
b0 h#
b0 g#
0f#
0e#
b0 d#
b0 c#
b0 b#
b0 a#
b0 `#
b0 _#
bx ^#
bx ]#
bx \#
b0 [#
b0 Z#
b0 Y#
bx X#
bx W#
b0 V#
b100 U#
b100 T#
bx S#
xR#
bx Q#
bx0 P#
b1 O#
b0 N#
b0 M#
b0 L#
b0 K#
b0 J#
b0 I#
b0 H#
b0 G#
b0 F#
bx E#
bx D#
bx C#
bx B#
b0 A#
bx @#
bx ?#
bx >#
bx =#
b0 <#
b0 ;#
b0 :#
b0 9#
b0 8#
b0 7#
b0 6#
b0 5#
b0 4#
b0 3#
b0 2#
b0 1#
b0 0#
b0 /#
b0 .#
b0 -#
b0 ,#
b0 +#
b0 *#
bx )#
bx (#
bx '#
bx &#
bx %#
bx $#
bx ##
b0 "#
b0 !#
b0 ~"
b0 }"
b0 |"
b0 {"
b0 z"
b0 y"
b0 x"
b0 w"
b0 v"
b0 u"
b0 t"
b0 s"
b0 r"
b0 q"
b0 p"
b0 o"
b0 n"
b0 m"
0l"
b0 k"
bx j"
bx i"
bx h"
bx g"
bx f"
bx e"
bx d"
bx c"
bx b"
bx a"
bx `"
bx _"
bx ^"
b0 ]"
b0 \"
b0 ["
b0 Z"
b0 Y"
b0 X"
b0 W"
b0 V"
b0 U"
b0 T"
b0 S"
b0 R"
b0 Q"
b0 P"
b0 O"
b0 N"
0M"
b0 L"
b0 K"
b0 J"
b0 I"
b0 H"
b0 G"
b0 F"
b0 E"
b0 D"
b0 C"
b0 B"
b0 A"
b100000 @"
b0 ?"
b0 >"
b0 ="
b0 <"
b0 ;"
b1000 :"
b1 9"
b0 8"
b0 7"
b0 6"
b1 5"
b0 4"
b0 3"
b0 2"
01"
00"
b10011010 /"
b110110 ."
b1101 -"
0,"
0+"
bx *"
b0 )"
b0 ("
b1 '"
1&"
b0 %"
b0 $"
bx #"
bx ""
x!"
x~
x}
x|
x{
xz
b0 y
b0 x
0w
0v
0u
b0 t
b0 s
0r
b0 q
b0 p
b0 o
b0 n
b0 m
b0 l
0k
b0 j
0i
0h
0g
0f
b0 e
b0 d
b0 c
b0 b
b0 a
0`
b0 _
b0 ^
b0 ]
bx \
bx [
bx Z
b0 Y
b0 X
0W
b0 V
0U
b0 T
bx S
xR
xQ
xP
xO
bx N
xM
bx L
xK
bx J
bx I
bx H
b0 G
b0 F
b100 E
b0 D
b0 C
b0 B
b0 A
x@
b0 ?
b0 >
b0 =
bx <
b0 ;
bx0 :
b0 9
08
b0 7
b11 6
15
b0 4
b1000 3
x2
b0 1
b11 0
b100000001 /
b0 .
b0 -
b0 ,
b0 +
b0 *
b11 )
1(
b0 '
b1000 &
1%
1$
bx #
0"
b0 !
$end
#500
b100000 !$
0$
#1000
0O
0Q
0P
0M
1R
b11 S
b11 j"
b11 %#
b0 N
b0 g"
b0 &#
b0 #"
b0 S#
b0 #$
1R#
b100 <
b100 m#
b100 $$
b0 H
b0 f"
b0 )#
02
0z
0}
0|
0~
0{
1!"
b11 ""
b11 $#
b11 X#
0@
b0 :
b0 P#
b0 &$
b0 ##
b0 ^"
b0 `"
b0 _"
b0 b"
b0 a"
b0 (#
b0 '#
1K
b0 I
b0 h"
b0 z#
b0 y#
b0 J
b0 i"
b0 x#
b0 w#
b0 W#
b0 k#
b11 j#
b0 L
b0 d"
b0 s#
b0 %$
b0 [
b0 ]#
b0 q#
b0 \
b0 e"
b0 \#
b0 Z
b0 c"
b0 Q#
b0 ^#
b0 #
b0 *"
b1 *
1$
05
0(
#1250
1f#
b11111110 '
b11111110 4
b11111110 _#
#1500
0$
#2000
b1 d#
b11111110 g#
b11 k#
1e#
10"
b10 *
1$
#2250
b0 '
b0 4
b0 _#
#2500
0$
#3000
b111111100000 9
b101111110000 =
b101111110000 Y#
b10 d#
b11111110000000000000000000000000 B
b11111110000000000000000000000000 [#
b11111110000000000000000000000000 `#
b0 g#
b1 c#
b11 *
1$
#3500
0$
#4000
b0 9
b0 =
b0 Y#
b11 d#
b0 B
b0 [#
b0 `#
b10 j#
b10 c#
b100 *
1$
#4250
b10 '
b10 4
b10 _#
#4500
0$
#5000
b1 i#
b0 d#
b10 g#
b10 k#
b1 j#
b11 c#
b101 *
1$
#5250
b10011 '
b10011 4
b10011 _#
#5500
0$
#6000
b100 9
b10 =
b10 Y#
b1 d#
b1000000000 B
b1000000000 [#
b1000000000 `#
b10011 g#
b1 h#
b1 k#
b0 j#
b0 c#
b110 *
1$
#6250
b0 '
b0 4
b0 _#
#6500
0$
#7000
b10 d#
b1000010011 B
b1000010011 [#
b1000010011 `#
b0 g#
b1 b#
b0 k#
b11 j#
b1 c#
b111 *
1$
#7500
0$
#8000
b11 d#
b11 k#
b10 j#
b10 c#
b1000 *
1$
#8250
b100 '
b100 4
b100 _#
#8500
0$
#9000
b10 i#
b0 d#
b100 g#
b10 k#
b1 j#
b11 c#
b1001 *
1$
#9250
b10011 '
b10011 4
b10011 _#
#9500
0$
#10000
b1 d#
b10011 g#
b10 h#
b1 k#
b0 j#
b0 c#
b1010 *
1$
#10250
b0 '
b0 4
b0 _#
#10500
0$
#11000
b10 d#
b0 g#
b10 b#
b0 k#
b11 j#
b1 c#
b1011 *
1$
#11250
b10000 '
b10000 4
b10000 _#
#11500
0$
#12000
b11 d#
b10000 g#
b11 k#
b10 j#
b10 c#
b1100 *
1$
#12250
b100 '
b100 4
b100 _#
#12500
0$
#13000
b11 i#
b0 d#
b100 g#
b10 k#
b1 j#
b11 c#
b1101 *
1$
#13250
b10010011 '
b10010011 4
b10010011 _#
#13500
0$
#14000
b1 d#
b10010011 g#
b11 h#
b1 k#
b0 j#
b0 c#
b1110 *
1$
#14250
b0 '
b0 4
b0 _#
#14500
0$
#15000
b10 d#
b0 g#
b11 b#
b0 k#
b11 j#
b1 c#
b1111 *
1$
#15250
b11110000 '
b11110000 4
b11110000 _#
#15500
0$
#16000
b11 d#
b11110000 g#
b11 k#
b10 j#
b10 c#
b10000 *
1$
#16250
b101 '
b101 4
b101 _#
#16500
0$
#17000
b100 i#
b0 d#
b101 g#
b10 k#
b1 j#
b11 c#
b10001 *
1$
#17250
b10011 '
b10011 4
b10011 _#
#17500
0$
#18000
b1 d#
b10011 g#
b100 h#
b1 k#
b0 j#
b0 c#
b10010 *
1$
#18250
b0 '
b0 4
b0 _#
#18500
0$
#19000
b10 d#
b0 g#
b100 b#
b0 k#
b11 j#
b1 c#
b10011 *
1$
#19500
0$
#20000
b11 d#
b11 k#
b10 j#
b10 c#
b10100 *
1$
#20250
b1000 '
b1000 4
b1000 _#
#20500
0$
#21000
b101 i#
b0 d#
b1000 g#
b10 k#
b1 j#
b11 c#
b10101 *
1$
#21250
b10010011 '
b10010011 4
b10010011 _#
#21500
0$
#22000
b1 d#
b10010011 g#
b101 h#
b1 k#
b0 j#
b0 c#
b10110 *
1$
#22250
b0 '
b0 4
b0 _#
#22500
0$
#23000
b10 d#
b0 g#
b101 b#
b0 k#
b11 j#
b1 c#
b10111 *
1$
#23250
b10000 '
b10000 4
b10000 _#
#23500
0$
#24000
b11 d#
b10000 g#
b11 k#
b10 j#
b10 c#
b11000 *
1$
#24250
b1001 '
b1001 4
b1001 _#
#24500
0$
#25000
b110 i#
b0 d#
b1001 g#
b10 k#
b1 j#
b11 c#
b11001 *
1$
#25250
b10011 '
b10011 4
b10011 _#
#25500
0$
#26000
b1 d#
b10011 g#
b110 h#
b1 k#
b0 j#
b0 c#
b11010 *
1$
#26250
b0 '
b0 4
b0 _#
#26500
0$
#27000
b10 d#
b0 g#
b110 b#
b0 k#
b11 j#
b1 c#
b11011 *
1$
#27250
b10100010 '
b10100010 4
b10100010 _#
#27500
0$
#28000
b11 d#
b10100010 g#
b11 k#
b10 j#
b10 c#
b11100 *
1$
#28250
b100000 '
b100000 4
b100000 _#
#28500
0$
#29000
b111 i#
b0 d#
b100000 g#
b10 k#
b1 j#
b11 c#
b11101 *
1$
#29250
b100011 '
b100011 4
b100011 _#
#29500
0$
#30000
b1 d#
b100011 g#
b111 h#
b1 k#
b0 j#
b0 c#
b11110 *
1$
#30250
b0 '
b0 4
b0 _#
#30500
0$
#31000
b10 d#
b0 g#
b111 b#
b0 k#
b11 j#
b1 c#
b11111 *
1$
#31250
b10 '
b10 4
b10 _#
#31500
0$
#32000
b11 d#
b10 g#
b11 k#
b10 j#
b10 c#
b100000 *
1$
#32250
b101000 '
b101000 4
b101000 _#
#32500
0$
#33000
b1000 i#
b0 d#
b101000 g#
b10 k#
b1 j#
b11 c#
b100001 *
1$
#33250
b11 '
b11 4
b11 _#
#33500
0$
#34000
b1 d#
b11 g#
b1000 h#
b1 k#
b0 j#
b0 c#
b100010 *
1$
#34250
b0 '
b0 4
b0 _#
#34500
0$
#35000
b10 d#
b0 g#
b1000 b#
b0 k#
b11 j#
b1 c#
b100011 *
1$
#35250
b1000 '
b1000 4
b1000 _#
#35500
0$
#36000
b11 d#
b1000 g#
b11 k#
b10 j#
b10 c#
b100100 *
1$
#36250
b1010 '
b1010 4
b1010 _#
#36500
0$
#37000
b1001 i#
b0 d#
b1010 g#
b10 k#
b1 j#
b11 c#
b100101 *
1$
#37250
b10011 '
b10011 4
b10011 _#
#37500
0$
#38000
b1 d#
b10011 g#
b1001 h#
b1 k#
b0 j#
b0 c#
b100110 *
1$
#38250
b1000000 '
b1000000 4
b1000000 _#
#38500
0$
#39000
b10 d#
b1000000 g#
b1001 b#
b0 k#
b11 j#
b1 c#
b100111 *
1$
#39250
b10011000 '
b10011000 4
b10011000 _#
#39500
0$
#40000
b11 d#
b10011000 g#
b11 k#
b10 j#
b10 c#
b101000 *
1$
#40250
b1000 '
b1000 4
b1000 _#
#40500
0$
#41000
b1010 i#
b0 d#
b1000 g#
b10 k#
b1 j#
b11 c#
b101001 *
1$
#41250
b110011 '
b110011 4
b110011 _#
#41500
0$
#42000
b1 d#
b110011 g#
b1010 h#
b1 k#
b0 j#
b0 c#
b101010 *
1$
#42250
b1 '
b1 4
b1 _#
#42500
0$
#43000
b10 d#
b1 g#
b1010 b#
b0 k#
b11 j#
b1 c#
b101011 *
1$
#43250
b101000 '
b101000 4
b101000 _#
#43500
0$
#44000
b11 d#
b101000 g#
b11 k#
b10 j#
b10 c#
b101100 *
1$
#44250
b10001000 '
b10001000 4
b10001000 _#
#44500
0$
#45000
b1011 i#
b0 d#
b10001000 g#
b10 k#
b1 j#
b11 c#
b101101 *
1$
#45250
b10110011 '
b10110011 4
b10110011 _#
#45500
0$
#46000
b1 d#
b10110011 g#
b1011 h#
b1 k#
b0 j#
b0 c#
b101110 *
1$
#46250
b0 '
b0 4
b0 _#
#46500
0$
#47000
b10 d#
b0 g#
b1011 b#
b0 k#
b11 j#
b1 c#
b101111 *
1$
#47250
b1001 '
b1001 4
b1001 _#
#47500
0$
#48000
b11 d#
b1001 g#
b11 k#
b10 j#
b10 c#
b110000 *
1$
#48500
0$
#49000
b1100 i#
b0 d#
b10 k#
b1 j#
b11 c#
b110001 *
1$
#49250
b10010011 '
b10010011 4
b10010011 _#
#49500
0$
#50000
b1 d#
b10010011 g#
b1100 h#
b1 k#
b0 j#
b0 c#
b110010 *
1$
#50250
b0 '
b0 4
b0 _#
#50500
0$
#51000
b10 d#
b0 g#
b1100 b#
b0 k#
b11 j#
b1 c#
b110011 *
1$
#51250
b1000 '
b1000 4
b1000 _#
#51500
0$
#52000
b11 d#
b1000 g#
b11 k#
b10 j#
b10 c#
b110100 *
1$
#52250
b10001001 '
b10001001 4
b10001001 _#
#52500
0$
#53000
b1101 i#
b0 d#
b10001001 g#
b10 k#
b1 j#
b11 c#
b110101 *
1$
#53250
b10011 '
b10011 4
b10011 _#
#53500
0$
#54000
b1 d#
b10011 g#
b1101 h#
b1 k#
b0 j#
b0 c#
b110110 *
1$
#54250
b0 '
b0 4
b0 _#
#54500
0$
#55000
b10 d#
b0 g#
b1101 b#
b0 k#
b11 j#
b1 c#
b110111 *
1$
#55250
b1001 '
b1001 4
b1001 _#
#55500
0$
#56000
b11 d#
b1001 g#
b11 k#
b10 j#
b10 c#
b111000 *
1$
#56250
b10001000 '
b10001000 4
b10001000 _#
#56500
0$
#57000
b1110 i#
b0 d#
b10001000 g#
b10 k#
b1 j#
b11 c#
b111001 *
1$
#57250
b10010011 '
b10010011 4
b10010011 _#
#57500
0$
#58000
b1 d#
b10010011 g#
b1110 h#
b1 k#
b0 j#
b0 c#
b111010 *
1$
#58250
b0 '
b0 4
b0 _#
#58500
0$
#59000
b10 d#
b0 g#
b1110 b#
b0 k#
b11 j#
b1 c#
b111011 *
1$
#59250
b10001000 '
b10001000 4
b10001000 _#
